1 10 20
100 200 125
201 210 89
900 1000 174
10 1 20
30 30 19
529 452 142
999999 1 525
1 999999 525
23 407 144
527 732 171
435 596 142
3 30 112
4 40 112
5 50 112
6 60 113
7 70 113
8 80 116
9 90 116
10 100 119
8 8 4
5 7 17
43 64 113
647 335 142
444 555 142
123 346 144
47675 758578 509
232 547 144
9 2 20
890 435 179
12 34 112
123 456 144
1234 5678 238
12345 67890 340
21 43 112
321 654 145
4321 8765 262
54321 98760 351
23 34 112
234 567 144
2345 6789 262
23456 78901 351
64747 65895 268
445576 755746 509
2 9 20
1 5 8
3 7 17
4 90 116
2 477 144
42 67 113
345 789 171
6434 1453 262
5758 58697 340
4532 56860 340
98 76 119
987 654 179
9876 5432 262
98765 43210 351
87 65 116
876 543 179
8765 4321 262
876543 3435 525
24674 569364 470
10 70 113
70 10 113
200 200 27
430 340 134
514 415 142
367 7463 262
2547 65858 340
904852 25378 525
8265 22556 279
1111 2222 182
2222 3333 217
3333 4444 238
4444 5555 210
5555 6666 262
6666 7777 257
7777 8888 252
8888 9999 260
9999 1010 262
10101 20202 279
20202 30303 308
30303 40404 324
40404 50505 314
50505 60606 340
60606 70707 335
70707 80808 351
80808 90909 333
1 1000 179
2 1000 179
3 1000 179
4 1000 179
5 1000 179
6 2000 182
7 3000 217
8 4000 238
9 5000 238
10 10000 262
34 479904 449
4563 7076 262
