1 10 20
100 200 125
201 210 89
900 1000 174
1 1 1
1 2 2
1 3 8
3 1 8
2 1 2
1 1000 179
1 1001 179
1 2000 182
1 2001 182
1000 1001 143
1000 2000 182
1000 2001 182
1001 2000 182
1001 2001 182
31 100000 351
31 100001 351
400000 399999 229
39999 399999 443
1000 2000 182
1998 2998 217
1998 2997 217
1998 2999 217
3001 4000 238
4001 5000 215
6001 6000 50
19311 10941 279
1 8 17
1 9 20
9 10 20
100000 199999 383
200000 299999 443
300000 399999 441
400000 499999 449
500000 599999 470
600000 699999 509
700000 799999 504
800000 899999 525
900000 999999 507
999999 999999 259
1 500000 449
1 250000 443
1 125000 354
1 62500 340
1 31250 308
1 15675 276
15675 500000 449
500000 999999 525
500000 750000 509
500000 625000 470
500000 512500 470
500000 506250 426
500000 503125 426
500000 501062 364
500000 500531 364
750000 999999 525
750000 825000 468
750000 787500 468
750000 768750 468
750000 758487 424
250000 500000 449
999999 500000 525
750000 500000 509
625000 500000 470
512500 500000 470
506250 500000 426
503125 500000 426
501062 500000 364
500531 500000 364
999999 750000 525
825000 750000 468
787500 750000 468
768750 750000 468
758487 750000 424
500000 250000 449
1 500 144
1 250 128
1 125 119
1 62 113
1 31 112
1 15 20
1 7 17
1 3 8
500 1000 179
500 750 171
500 625 137
500 562 137
500 531 124
500 515 124
500 507 111
500 503 111
500 501 111
500 500 111
750 1000 179
750 875 179
750 812 153
750 781 153
750 760 140
750 755 140
750 752 140
750 751 140
750 750 47
1 999999 525
